Pivoting: Wide and Long
…
Rows: 23 Columns: 4
── Column specification ────────────────────────────────────────────────────────
Delimiter: ","
chr (4): X1, X2, X3, X4

ℹ Use `spec()` to retrieve the full column specification for this data.
ℹ Specify the column types or set `show_col_types = FALSE` to quiet this message.

Code

Intel.IS

# A tibble: 23 × 4
   X1                                                          X2    X3    X4   
   <chr>                                                       <chr> <chr> <chr>
 1 Consolidated Statements of Income - USD ($) shares in Mill… 12 M… <NA>  <NA> 
 2 <NA>                                                        Dec.… Dec.… Dec.…
 3 Income Statement [Abstract]                                                  
 4 Net revenue                                                 $ 63… $ 79… $ 77…
 5 Cost of sales                                               36,1… 35,2… 34,2…
 6 Gross margin                                                26,8… 43,8… 43,6…
 7 Research and development                                    17,5… 15,1… 13,5…
 8 Marketing, general and administrative                       7,002 6,543 6,180
 9 Restructuring and other charges                             2     2,626 198  
10 Operating expenses                                          24,5… 24,3… 19,9…
# … with 13 more rows
…
Warning in mask$eval_all_mutate(quo): NAs introduced by coercion

Warning in mask$eval_all_mutate(quo): NAs introduced by coercion

Code

NWS.Daily %>% filter(is.na(date))

# A tibble: 535 × 8
      YR    MO Day      TX    TN    PR    SN date  
   <int> <int> <chr> <dbl> <dbl> <dbl> <dbl> <date>
 1  1940    11 31       NA    NA    NA    NA NA    
 2  1941     2 29       NA    NA    NA    NA NA    
 3  1941     2 30       NA    NA    NA    NA NA    
 4  1941     2 31       NA    NA    NA    NA NA    
 5  1941     4 31       NA    NA    NA    NA NA    
 6  1941     6 31       NA    NA    NA    NA NA    
 7  1941     9 31       NA    NA    NA    NA NA    
 8  1941    11 31       NA    NA    NA    NA NA    
 9  1942     2 29       NA    NA    NA    NA NA    
10  1942     2 30       NA    NA    NA    NA NA    
# … with 525 more rows
…
